{"questionnaires":
	[
		{
			"_id" : 1,
			"identifiant" : "evalRiskTMT_SMS-MSChronique",
			"nom": "Eval-Risk-TMS : Risque de SMS-MS chronique",
			"version": 1,
			"questionsCollection": [ 1,2,3,4,5,6,7],
			"createur": {"_id":1, "Role":"Administrateur"},
			"dateSoumission": "28/10/2019-23:46",
			"dateDerniereModif": "28/10/2019-23:46",
			"dernierModificateur": {"_id":1, "Role":"Administrateur"},
			"droitsDeModificateur":[]
		},
						
		{
			"_id" : 2,
			"identifiant" : "evalRiskTMT_Lombalgie",
			"nom": "Eval-Risk-TMS : Risque de lombalgie chronique",
			"version": 1,
			"questionsCollection": [1,8],
			"createur": {"_id":1, "Role":"Administrateur"},
			"dateSoumission": "28/10/2019-23:46",
			"dateDerniereModif": "28/10/2019-23:46",
			"dernierModificateur": {"_id":1, "Role":"Administrateur"},
			"droitsDeModificateur":[]
		}		
	]
}
