[
 {
  "score": 0,
  "code": "15-19",
  "nom": "15-19"
 },
 {
  "score": 0,
  "code": "20-24",
  "nom": "20-24"
 },
 {
  "score": 0,
  "code": "25-29",
  "nom": "25-29"
 },
 {
  "score": 0,
  "code": "30-34",
  "nom": "30-34"
 },
 {
  "score": 0,
  "code": "35-39",
  "nom": "35-39"
 },
 {
  "score": 0,
  "code": "40-44",
  "nom": "40-44"
 },
 {
  "score": 0,
  "code": "45-49",
  "nom": "45-49"
 },
 {
  "score": 0,
  "code": "50-54",
  "nom": "50-54"
 },
 {
  "score": 0,
  "code": "55-59",
  "nom": "55-59"
 },
 {
  "score": 0,
  "code": "60-64",
  "nom": "60-64"
 },
 {
  "score": 0,
  "code": "65-69",
  "nom": "65-69"
 },
 {
  "score": 0,
  "code": "70-74",
  "nom": "70-74"
 },
 {
  "score": 0,
  "code": "75-79",
  "nom": "75-79"
 }
]