[
 {
  "score": 0,
  "code": "1",
  "nom": "Jamais"
 },
 {
  "score": 0,
  "code": "2",
  "nom": "Rarement (< 2 heures/jour)"
 },
 {
  "score": 2,
  "code": "3",
  "nom": "Souvent (2 à 4 heures/jour)"
 },
 {
  "score": 2,
  "code": "4",
  "nom": "La plupart du temps (> 4 heures/jour)"
 }
]