[
 {
  "score": 0,
  "code": "1",
  "nom": "Pas du tout d'accord"
 },
 {
  "score": 0,
  "code": "2",
  "nom": "Pas d'accord"
 },
 {
  "score": 0,
  "code": "3",
  "nom": "D'accord"
 },
 {
  "score": 0,
  "code": "4",
  "nom": "Tout à fait d'accord"
 }
]