[
 {
  "score": 84,
  "code": "01",
  "nom": "Ain"
 },
 {
  "score": 32,
  "code": "02",
  "nom": "Aisne"
 },
 {
  "score": 84,
  "code": "03",
  "nom": "Allier"
 },
 {
  "score": 93,
  "code": "04",
  "nom": "Alpes-de-Haute-Provence"
 },
 {
  "score": 93,
  "code": "05",
  "nom": "Hautes-Alpes"
 },
 {
  "score": 93,
  "code": "06",
  "nom": "Alpes-Maritimes"
 },
 {
  "score": 84,
  "code": "07",
  "nom": "Ardèche"
 },
 {
  "score": 44,
  "code": "08",
  "nom": "Ardennes"
 },
 {
  "score": 76,
  "code": "09",
  "nom": "Ariège"
 },
 {
  "score": 44,
  "code": "10",
  "nom": "Aube"
 },
 {
  "score": 76,
  "code": "11",
  "nom": "Aube"
 },
 {
  "score": 76,
  "code": "12",
  "nom": "Aveyron"
 },
 {
  "score": 93,
  "code": "13",
  "nom": "Bouches-du-Rhône"
 },
 {
  "score": 28,
  "code": "14",
  "nom": "Calvados"
 },
 {
  "score": 84,
  "code": "15",
  "nom": "Cantal"
 },
 {
  "score": 75,
  "code": "16",
  "nom": "Charente"
 },
 {
  "score": 75,
  "code": "17",
  "nom": "Charente-Maritime"
 },
 {
  "score": 24,
  "code": "18",
  "nom": "Cher"
 },
 {
  "score": 75,
  "code": "19",
  "nom": "Corrèze"
 },
 {
  "score": 27,
  "code": "21",
  "nom": "Côte-d'Or"
 },
 {
  "score": 53,
  "code": "22",
  "nom": "Côtes-d'Armor"
 },
 {
  "score": 75,
  "code": "23",
  "nom": "Creuse"
 },
 {
  "score": 75,
  "code": "24",
  "nom": "Dordogne"
 },
 {
  "score": 27,
  "code": "25",
  "nom": "Doubs"
 },
 {
  "score": 84,
  "code": "26",
  "nom": "Drôme"
 },
 {
  "score": 28,
  "code": "27",
  "nom": "Eure"
 },
 {
  "score": 24,
  "code": "28",
  "nom": "Eure-et-Loir"
 },
 {
  "score": 53,
  "code": "29",
  "nom": "Finistère"
 },
 {
  "score": 94,
  "code": "2A",
  "nom": "Corse-du-Sud"
 },
 {
  "score": 94,
  "code": "2B",
  "nom": "Haute-Corse"
 },
 {
  "score": 76,
  "code": "30",
  "nom": "Gard"
 },
 {
  "score": 76,
  "code": "31",
  "nom": "Haute-Garonne"
 },
 {
  "score": 76,
  "code": "32",
  "nom": "Gers"
 },
 {
  "score": 75,
  "code": "33",
  "nom": "Gironde"
 },
 {
  "score": 76,
  "code": "34",
  "nom": "Hérault"
 },
 {
  "score": 53,
  "code": "35",
  "nom": "Ille-et-Vilaine"
 },
 {
  "score": 24,
  "code": "36",
  "nom": "Indre"
 },
 {
  "score": 24,
  "code": "37",
  "nom": "Indre-et-Loire"
 },
 {
  "score": 84,
  "code": "38",
  "nom": "Isère"
 },
 {
  "score": 27,
  "code": "39",
  "nom": "Jura"
 },
 {
  "score": 75,
  "code": "40",
  "nom": "Landes"
 },
 {
  "score": 24,
  "code": "41",
  "nom": "Loir-et-Cher"
 },
 {
  "score": 84,
  "code": "42",
  "nom": "Loire"
 },
 {
  "score": 84,
  "code": "43",
  "nom": "Haute-Loire"
 },
 {
  "score": 52,
  "code": "44",
  "nom": "Loire-Atlantique"
 },
 {
  "score": 24,
  "code": "45",
  "nom": "Loiret"
 },
 {
  "score": 76,
  "code": "46",
  "nom": "Lot"
 },
 {
  "score": 75,
  "code": "47",
  "nom": "Lot-et-Garonne"
 },
 {
  "score": 76,
  "code": "48",
  "nom": "Lozère"
 },
 {
  "score": 52,
  "code": "49",
  "nom": "Maine-et-Loire"
 },
 {
  "score": 28,
  "code": "50",
  "nom": "Manche"
 },
 {
  "score": 44,
  "code": "51",
  "nom": "Marne"
 },
 {
  "score": 44,
  "code": "52",
  "nom": "Haute-Marne"
 },
 {
  "score": 52,
  "code": "53",
  "nom": "Mayenne"
 },
 {
  "score": 44,
  "code": "54",
  "nom": "Meurthe-et-Moselle"
 },
 {
  "score": 44,
  "code": "55",
  "nom": "Meuse"
 },
 {
  "score": 53,
  "code": "56",
  "nom": "Morbihan"
 },
 {
  "score": 44,
  "code": "57",
  "nom": "Moselle"
 },
 {
  "score": 27,
  "code": "58",
  "nom": "Nièvre"
 },
 {
  "score": 32,
  "code": "59",
  "nom": "Nord"
 },
 {
  "score": 32,
  "code": "60",
  "nom": "Oise"
 },
 {
  "score": 28,
  "code": "61",
  "nom": "Orne"
 },
 {
  "score": 32,
  "code": "62",
  "nom": "Pas-de-Calais"
 },
 {
  "score": 84,
  "code": "63",
  "nom": "Puy-de-Dôme"
 },
 {
  "score": 75,
  "code": "64",
  "nom": "Pyrénées-Atlantiques"
 },
 {
  "score": 76,
  "code": "65",
  "nom": "Hautes-Pyrénées"
 },
 {
  "score": 76,
  "code": "66",
  "nom": "Pyrénées-Orientales"
 },
 {
  "score": 44,
  "code": "67",
  "nom": "Bas-Rhin"
 },
 {
  "score": 44,
  "code": "68",
  "nom": "Haut-Rhin"
 },
 {
  "score": 84,
  "code": "69",
  "nom": "Rhône"
 },
 {
  "score": 27,
  "code": "70",
  "nom": "Haute-Saône"
 },
 {
  "score": 27,
  "code": "71",
  "nom": "Saône-et-Loire"
 },
 {
  "score": 52,
  "code": "72",
  "nom": "Sarthe"
 },
 {
  "score": 84,
  "code": "73",
  "nom": "Savoie"
 },
 {
  "score": 84,
  "code": "74",
  "nom": "Haute-Savoie"
 },
 {
  "score": 11,
  "code": "75",
  "nom": "Paris"
 },
 {
  "score": 28,
  "code": "76",
  "nom": "Seine-Maritime"
 },
 {
  "score": 11,
  "code": "77",
  "nom": "Seine-et-Marne"
 },
 {
  "score": 11,
  "code": "78",
  "nom": "Yvelines"
 },
 {
  "score": 75,
  "code": "79",
  "nom": "Deux-Sèvres"
 },
 {
  "score": 32,
  "code": "80",
  "nom": "Somme"
 },
 {
  "score": 76,
  "code": "81",
  "nom": "Tarn"
 },
 {
  "score": 76,
  "code": "82",
  "nom": "Tarn-et-Garonne"
 },
 {
  "score": 93,
  "code": "83",
  "nom": "Var"
 },
 {
  "score": 93,
  "code": "84",
  "nom": "Vaucluse"
 },
 {
  "score": 52,
  "code": "85",
  "nom": "Vendée"
 },
 {
  "score": 75,
  "code": "86",
  "nom": "Vienne"
 },
 {
  "score": 75,
  "code": "87",
  "nom": "Haute-Vienne"
 },
 {
  "score": 44,
  "code": "88",
  "nom": "Vosges"
 },
 {
  "score": 27,
  "code": "89",
  "nom": "Yonne"
 },
 {
  "score": 27,
  "code": "90",
  "nom": "Territoire de Belfort"
 },
 {
  "score": 11,
  "code": "91",
  "nom": "Essonne"
 },
 {
  "score": 11,
  "code": "92",
  "nom": "Hauts-de-Seine"
 },
 {
  "score": 11,
  "code": "93",
  "nom": "Seine-Saint-Denis"
 },
 {
  "score": 11,
  "code": "94",
  "nom": "Val-de-Marne"
 },
 {
  "score": 11,
  "code": "95",
  "nom": "Val-d'Oise"
 },
 {
  "score": 1,
  "code": "971",
  "nom": "Guadeloupe"
 },
 {
  "score": 2,
  "code": "972",
  "nom": "Martinique"
 },
 {
  "score": 3,
  "code": "973",
  "nom": "Guyane"
 },
 {
  "score": 4,
  "code": "974",
  "nom": "La réunion"
 },
 {
  "score": 0,
  "code": "975",
  "nom": "Saint-Pierre-et-Miquelon"
 },
 {
  "score": 6,
  "code": "976",
  "nom": "Mayotte"
 },
 {
  "score": 0,
  "code": "977",
  "nom": "Saint-Barthélemy"
 },
 {
  "score": 0,
  "code": "978",
  "nom": "Saint-Martin"
 },
 {
  "score": 0,
  "code": "984",
  "nom": "Terres australes et antarctiques françaises"
 },
 {
  "score": 0,
  "code": "986",
  "nom": "Wallis et Futuna"
 },
 {
  "score": 0,
  "code": "987",
  "nom": "Polynésie française"
 },
 {
  "score": 0,
  "code": "988",
  "nom": "Nouvelle calédonie"
 },
 {
  "score": 0,
  "code": "989",
  "nom": "Ile de Clipperton"
 }
]