[
 {
  "score": 0,
  "code": "1",
  "nom": "Moins de 24 heures"
 },
 {
  "score": 0,
  "code": "2",
  "nom": "1 à 7 jours"
 },
 {
  "score": 0,
  "code": "3",
  "nom": "8 à 30 jours"
 },
 {
  "score": 0,
  "code": "4",
  "nom": "Plus de 30 jours"
 },
 {
  "score": 0,
  "code": "5",
  "nom": "En permanence"
 }
]