[
 {
  "score": 0,
  "code": "6",
  "nom": "6 Pas d'effort du tout"
 },
 {
  "score": 0,
  "code": "7",
  "nom": "7 Extrêmement léger"
 },
 {
  "score": 0,
  "code": "8",
  "nom": "8 "
 },
 {
  "score": 0,
  "code": "9",
  "nom": "9 Très léger"
 },
 {
  "score": 0,
  "code": "10",
  "nom": "10 "
 },
 {
  "score": 0,
  "code": "11",
  "nom": "11 Léger"
 },
 {
  "score": 0,
  "code": "12",
  "nom": "12 "
 },
 {
  "score": 0,
  "code": "13",
  "nom": "13 Un peu dur"
 },
 {
  "score": 0,
  "code": "14",
  "nom": "14 "
 },
 {
  "score": 2,
  "code": "15",
  "nom": "15 Dur"
 },
 {
  "score": 2,
  "code": "16",
  "nom": "16 "
 },
 {
  "score": 2,
  "code": "17",
  "nom": "17 Très Dur"
 },
 {
  "score": 2,
  "code": "18",
  "nom": "18 "
 },
 {
  "score": 2,
  "code": "19",
  "nom": "19 Extrêmement dur"
 },
 {
  "score": 2,
  "code": "20",
  "nom": "20 Epuissant"
 }
]