[
  {
    "code": "011A",
    "nom": "Culture de céréales, cultures industrielles",
    "score": 0
  },
  {
    "code": "011C",
    "nom": "Culture de légumes, maraîchage",
    "score": 0
  },
  {
    "code": "011D",
    "nom": "Horticulture, pépinières",
    "score": 0
  },
  {
    "code": "011F",
    "nom": "Culture fruitière",
    "score": 0
  },
  {
    "code": "011G",
    "nom": "Viticulture",
    "score": 0
  },
  {
    "code": "012A",
    "nom": "Elevage de bovins",
    "score": 0
  },
  {
    "code": "012C",
    "nom": "Elevage d'ovins, caprins et équidés",
    "score": 0
  },
  {
    "code": "012E",
    "nom": "Elevage de porcins",
    "score": 0
  },
  {
    "code": "012G",
    "nom": "Elevage de volailles",
    "score": 0
  },
  {
    "code": "012J",
    "nom": "Elevage d'autres animaux",
    "score": 0
  },
  {
    "code": "013Z",
    "nom": "Culture et élevage associés",
    "score": 0
  },
  {
    "code": "014A",
    "nom": "Services aux cultures productives",
    "score": 0
  },
  {
    "code": "014B",
    "nom": "Réalisation et entretien de plantations ornementales",
    "score": 0
  },
  {
    "code": "014D",
    "nom": "Services annexes à l'élevage",
    "score": 0
  },
  {
    "code": "015Z",
    "nom": "Chasse",
    "score": 0
  },
  {
    "code": "020A",
    "nom": "Sylviculture",
    "score": 0
  },
  {
    "code": "020B",
    "nom": "Exploitation forestière",
    "score": 0
  },
  {
    "code": "020D",
    "nom": "Services forestiers",
    "score": 0
  },
  {
    "code": "050A",
    "nom": "Pêche",
    "score": 0
  },
  {
    "code": "050C",
    "nom": "Pisciculture, aquaculture",
    "score": 0
  },
  {
    "code": "101Z",
    "nom": "Extraction et agglomération de la houille",
    "score": 0
  },
  {
    "code": "102Z",
    "nom": "Extraction et agglomération du lignite",
    "score": 0
  },
  {
    "code": "103Z",
    "nom": "Extraction et agglomération de la tourbe",
    "score": 0
  },
  {
    "code": "111Z",
    "nom": "Extraction d'hydrocarbures",
    "score": 0
  },
  {
    "code": "112Z",
    "nom": "Services annexes à l'extraction d'hydrocarbures",
    "score": 0
  },
  {
    "code": "120Z",
    "nom": "Extraction de minerais d'uranium",
    "score": 0
  },
  {
    "code": "131Z",
    "nom": "Extraction de minerais de fer",
    "score": 0
  },
  {
    "code": "132Z",
    "nom": "Extraction de minerais de métaux non ferreux",
    "score": 0
  },
  {
    "code": "141A",
    "nom": "Extraction de pierres pour la construction",
    "score": 0
  },
  {
    "code": "141C",
    "nom": "Extraction de calcaire industriel, de gypse et de craie",
    "score": 0
  },
  {
    "code": "141E",
    "nom": "Extraction d'ardoise",
    "score": 0
  },
  {
    "code": "142A",
    "nom": "Production de sables et de granulats",
    "score": 0
  },
  {
    "code": "142C",
    "nom": "Extraction d'argiles et de kaolin",
    "score": 0
  },
  {
    "code": "143Z",
    "nom": "Extraction de minéraux pour industrie chimique et d'engrais naturels",
    "score": 0
  },
  {
    "code": "144Z",
    "nom": "Production de sel",
    "score": 0
  },
  {
    "code": "145Z",
    "nom": "Activités extractives n.c.a.",
    "score": 0
  },
  {
    "code": "151A",
    "nom": "Production de viandes de boucherie",
    "score": 0
  },
  {
    "code": "151C",
    "nom": "Production de viandes de volaille",
    "score": 0
  },
  {
    "code": "151E",
    "nom": "Préparation industrielle de produits à base de viande",
    "score": 0
  },
  {
    "code": "151F",
    "nom": "Charcuterie",
    "score": 0
  },
  {
    "code": "152Z",
    "nom": "Industrie du poisson",
    "score": 0
  },
  {
    "code": "153A",
    "nom": "Transformation et conservation de pommes de terre",
    "score": 0
  },
  {
    "code": "153C",
    "nom": "Préparation de jus de fruits et légumes",
    "score": 0
  },
  {
    "code": "153E",
    "nom": "Transformation et conservation de légumes",
    "score": 0
  },
  {
    "code": "153F",
    "nom": "Transformation et conservation de fruits",
    "score": 0
  },
  {
    "code": "154A",
    "nom": "Fabrication d'huiles et graisses brutes",
    "score": 0
  },
  {
    "code": "154C",
    "nom": "Fabrication d'huiles et graisses raffinées",
    "score": 0
  },
  {
    "code": "154E",
    "nom": "Fabrication de margarine",
    "score": 0
  },
  {
    "code": "155A",
    "nom": "Fabrication de lait liquide et de produits frais",
    "score": 0
  },
  {
    "code": "155B",
    "nom": "Fabrication de beurre",
    "score": 0
  },
  {
    "code": "155C",
    "nom": "Fabrication de fromages",
    "score": 0
  },
  {
    "code": "155D",
    "nom": "Fabrication d'autres produits laitiers",
    "score": 0
  },
  {
    "code": "155F",
    "nom": "Fabrication de glaces et sorbets",
    "score": 0
  },
  {
    "code": "156A",
    "nom": "Meunerie",
    "score": 0
  },
  {
    "code": "156B",
    "nom": "Autres activités de travail des grains",
    "score": 0
  },
  {
    "code": "156D",
    "nom": "Fabrication de produits amylacés",
    "score": 0
  },
  {
    "code": "157A",
    "nom": "Fabrication d'aliments pour animaux de ferme",
    "score": 0
  },
  {
    "code": "157C",
    "nom": "Fabrication d'aliments pour animaux de compagnie",
    "score": 0
  },
  {
    "code": "158A",
    "nom": "Fabrication industrielle de pain et de pâtisserie",
    "score": 0
  },
  {
    "code": "158B",
    "nom": "Cuisson de produits de boulangerie",
    "score": 0
  },
  {
    "code": "158C",
    "nom": "Boulangerie et boulangerie-pâtisserie",
    "score": 0
  },
  {
    "code": "158D",
    "nom": "Pâtisserie",
    "score": 0
  },
  {
    "code": "158F",
    "nom": "Biscotterie, biscuiterie, pâtisserie de conservation",
    "score": 0
  },
  {
    "code": "158H",
    "nom": "Fabrication de sucre",
    "score": 0
  },
  {
    "code": "158K",
    "nom": "Chocolaterie, confiserie",
    "score": 0
  },
  {
    "code": "158M",
    "nom": "Fabrication de pâtes alimentaires",
    "score": 0
  },
  {
    "code": "158P",
    "nom": "Transformation du thé et du café",
    "score": 0
  },
  {
    "code": "158R",
    "nom": "Fabrication de condiments et assaisonnements",
    "score": 0
  },
  {
    "code": "158T",
    "nom": "Fabrication d'aliments adaptés à l'enfant et diététiques",
    "score": 0
  },
  {
    "code": "158V",
    "nom": "Industries alimentaires n.c.a.",
    "score": 0
  },
  {
    "code": "159A",
    "nom": "Production d'eaux de vie naturelles",
    "score": 0
  },
  {
    "code": "159B",
    "nom": "Fabrication de spiritueux",
    "score": 0
  },
  {
    "code": "159D",
    "nom": "Production d'alcool éthylique de fermentation",
    "score": 0
  },
  {
    "code": "159F",
    "nom": "Champagnisation",
    "score": 0
  },
  {
    "code": "159G",
    "nom": "Vinification",
    "score": 0
  },
  {
    "code": "159J",
    "nom": "Cidrerie",
    "score": 0
  },
  {
    "code": "159L",
    "nom": "Production d'autres boissons fermentées",
    "score": 0
  },
  {
    "code": "159N",
    "nom": "Brasserie",
    "score": 0
  },
  {
    "code": "159Q",
    "nom": "Malterie",
    "score": 0
  },
  {
    "code": "159S",
    "nom": "Industrie des eaux de table",
    "score": 0
  },
  {
    "code": "159T",
    "nom": "Production de boissons rafraîchissantes",
    "score": 0
  },
  {
    "code": "160Z",
    "nom": "Industrie du tabac",
    "score": 0
  },
  {
    "code": "171A",
    "nom": "Filature de l'industrie cotonnière",
    "score": 0
  },
  {
    "code": "171C",
    "nom": "Filature de l'industrie lainière-cycle cardé",
    "score": 0
  },
  {
    "code": "171E",
    "nom": "Préparation de la laine",
    "score": 0
  },
  {
    "code": "171F",
    "nom": "Filature de l'industrie lainiere-cycle peigné",
    "score": 0
  },
  {
    "code": "171H",
    "nom": "Préparation et filature du lin",
    "score": 0
  },
  {
    "code": "171K",
    "nom": "Moulinage texturation de soie et textiles artificiels et synthétiques",
    "score": 0
  },
  {
    "code": "171M",
    "nom": "Fabrication de fils à coudre",
    "score": 0
  },
  {
    "code": "171P",
    "nom": "Préparation et filature d'autres fibres",
    "score": 0
  },
  {
    "code": "172A",
    "nom": "Tissage de l'industrie cotonnière",
    "score": 0
  },
  {
    "code": "172C",
    "nom": "Tissage de l'industrie lainière-cycle cardé",
    "score": 0
  },
  {
    "code": "172E",
    "nom": "Tissage de l'industrie lainière-cycle peigné",
    "score": 0
  },
  {
    "code": "172G",
    "nom": "Tissage de soieries",
    "score": 0
  },
  {
    "code": "172J",
    "nom": "Tissage d'autres textiles",
    "score": 0
  },
  {
    "code": "173Z",
    "nom": "Ennoblissement textile",
    "score": 0
  },
  {
    "code": "174A",
    "nom": "Fabrication de linge de maison et d'articles d'ameublement",
    "score": 0
  },
  {
    "code": "174B",
    "nom": "Fabrication de petits articles textiles de literie",
    "score": 0
  },
  {
    "code": "174C",
    "nom": "Fabrication d'autres articles confectionnés en textile",
    "score": 0
  },
  {
    "code": "175A",
    "nom": "Fabrication de tapis et moquettes",
    "score": 0
  },
  {
    "code": "175C",
    "nom": "Ficellerie, corderie, fabrication de filets",
    "score": 0
  },
  {
    "code": "175E",
    "nom": "Fabrication de non tissés",
    "score": 0
  },
  {
    "code": "175G",
    "nom": "Industries textiles n.c.a.",
    "score": 0
  },
  {
    "code": "176Z",
    "nom": "Fabrication d'étoffes à maille",
    "score": 0
  },
  {
    "code": "177A",
    "nom": "Fabrication d'articles chaussants à maille",
    "score": 0
  },
  {
    "code": "177C",
    "nom": "Fabrication de pull-overs et articles similaires",
    "score": 0
  },
  {
    "code": "181Z",
    "nom": "Fabrication de vêtements en cuir",
    "score": 0
  },
  {
    "code": "182A",
    "nom": "Fabrication de vêtements de travail",
    "score": 0
  },
  {
    "code": "182C",
    "nom": "Fabrication de vêtements sur mesure",
    "score": 0
  },
  {
    "code": "182D",
    "nom": "Fabrication de vêtements de dessus pour hommes et garçonnets",
    "score": 0
  },
  {
    "code": "182E",
    "nom": "Fabrication de vêtements de dessus pour femmes et fillettes",
    "score": 0
  },
  {
    "code": "182G",
    "nom": "Fabrication de vêtements de dessous",
    "score": 0
  },
  {
    "code": "182J",
    "nom": "Fabrication d'autres vêtements et accessoires",
    "score": 0
  },
  {
    "code": "183Z",
    "nom": "Industrie des fourrures",
    "score": 0
  },
  {
    "code": "191Z",
    "nom": "Apprêt et tannage des cuirs",
    "score": 0
  },
  {
    "code": "192Z",
    "nom": "Fabrication d'articles de voyage et de maroquinerie",
    "score": 0
  },
  {
    "code": "193Z",
    "nom": "Fabrication de chaussures",
    "score": 0
  },
  {
    "code": "201A",
    "nom": "Sciage et rabotage du bois",
    "score": 0
  },
  {
    "code": "201B",
    "nom": "Imprégnation du bois",
    "score": 0
  },
  {
    "code": "202Z",
    "nom": "Fabrication de panneaux de bois",
    "score": 0
  },
  {
    "code": "203Z",
    "nom": "Fabrication de charpentes et de menuiseries",
    "score": 0
  },
  {
    "code": "204Z",
    "nom": "Fabrication d'emballages en bois",
    "score": 0
  },
  {
    "code": "205A",
    "nom": "Fabrication d'objets divers en bois",
    "score": 0
  },
  {
    "code": "205C",
    "nom": "Fabrication d'objets en liège, vannerie ou sparterie",
    "score": 0
  },
  {
    "code": "211A",
    "nom": "Fabrication de pâte à papier",
    "score": 0
  },
  {
    "code": "211C",
    "nom": "Fabrication de papier et de carton",
    "score": 0
  },
  {
    "code": "212A",
    "nom": "Industrie du carton ondulé",
    "score": 0
  },
  {
    "code": "212B",
    "nom": "Fabrication de cartonnages",
    "score": 0
  },
  {
    "code": "212C",
    "nom": "Fabrication d'emballages en papier",
    "score": 0
  },
  {
    "code": "212E",
    "nom": "Fabrication d'articles en papier à usage sanitaire ou domestique",
    "score": 0
  },
  {
    "code": "212G",
    "nom": "Fabrication d'article de papeterie",
    "score": 0
  },
  {
    "code": "212J",
    "nom": "Fabrication de papiers peints",
    "score": 0
  },
  {
    "code": "212L",
    "nom": "Fabrication d'autres articles en papier ou en carton",
    "score": 0
  },
  {
    "code": "221A",
    "nom": "Edition de livres",
    "score": 0
  },
  {
    "code": "221C",
    "nom": "Edition de journaux",
    "score": 0
  },
  {
    "code": "221E",
    "nom": "Edition de revues et périodiques",
    "score": 0
  },
  {
    "code": "221G",
    "nom": "Edition d'enregistrements sonores",
    "score": 0
  },
  {
    "code": "221J",
    "nom": "Autres activités d'édition",
    "score": 0
  },
  {
    "code": "222A",
    "nom": "Imprimerie de journaux",
    "score": 0
  },
  {
    "code": "222C",
    "nom": "Autres imprimeries (labeur)",
    "score": 0
  },
  {
    "code": "222E",
    "nom": "Reliure et finition",
    "score": 0
  },
  {
    "code": "222G",
    "nom": "Composition et photogravure",
    "score": 0
  },
  {
    "code": "222J",
    "nom": "Autres activités graphiques",
    "score": 0
  },
  {
    "code": "223A",
    "nom": "Reproduction d'enregistrements sonores",
    "score": 0
  },
  {
    "code": "223C",
    "nom": "Reproduction d'enregistrements vidéo",
    "score": 0
  },
  {
    "code": "223E",
    "nom": "Reproduction d'enregistrements informatiques",
    "score": 0
  },
  {
    "code": "231Z",
    "nom": "Cokéfaction",
    "score": 0
  },
  {
    "code": "232Z",
    "nom": "Raffinage de pétrole",
    "score": 0
  },
  {
    "code": "233Z",
    "nom": "Elaboration et transformation de matières nucléaires",
    "score": 0
  },
  {
    "code": "241A",
    "nom": "Fabrication de gaz industriels",
    "score": 0
  },
  {
    "code": "241C",
    "nom": "Fabrication de colorants et de pigments",
    "score": 0
  },
  {
    "code": "241E",
    "nom": "Fabrication d'autres produits chimiques inorganiques de base",
    "score": 0
  },
  {
    "code": "241G",
    "nom": "Fabrication d'autres produits chimiques organique de base",
    "score": 0
  },
  {
    "code": "241J",
    "nom": "Fabrication de produits azotés et d'engrais",
    "score": 0
  },
  {
    "code": "241L",
    "nom": "Fabrication de matières plastiques de base",
    "score": 0
  },
  {
    "code": "241N",
    "nom": "Fabrication de caoutchouc synthétique",
    "score": 0
  },
  {
    "code": "242Z",
    "nom": "Fabrication de produits agrochimiques",
    "score": 0
  },
  {
    "code": "243Z",
    "nom": "Fabrication de peintures et vernis",
    "score": 0
  },
  {
    "code": "244A",
    "nom": "Fabrication de produits pharmaceutiques de base",
    "score": 0
  },
  {
    "code": "244C",
    "nom": "Fabrication de médicaments",
    "score": 0
  },
  {
    "code": "244D",
    "nom": "Fabrication d'autres produits pharmaceutiques",
    "score": 0
  },
  {
    "code": "245A",
    "nom": "Fabrication de savons, détergents et produits d'entretien",
    "score": 0
  },
  {
    "code": "245C",
    "nom": "Fabrication de parfums et de produits pour la toilette",
    "score": 0
  },
  {
    "code": "246A",
    "nom": "Fabrication de produits explosifs",
    "score": 0
  },
  {
    "code": "246C",
    "nom": "Fabrication de colles et gélatines",
    "score": 0
  },
  {
    "code": "246E",
    "nom": "Fabrication d'huiles essentielles",
    "score": 0
  },
  {
    "code": "246G",
    "nom": "Fabrication de produits chimiques pour la photographie",
    "score": 0
  },
  {
    "code": "246J",
    "nom": "Fabrication de supports de données",
    "score": 0
  },
  {
    "code": "246L",
    "nom": "Fabrication de produits chimiques à usage industriel",
    "score": 0
  },
  {
    "code": "247Z",
    "nom": "Fabrication de fibres artificielles ou synthétiques",
    "score": 0
  },
  {
    "code": "251A",
    "nom": "Fabrication de pneumatiques",
    "score": 0
  },
  {
    "code": "251C",
    "nom": "Rechapage de pneumatiques",
    "score": 0
  },
  {
    "code": "251E",
    "nom": "Fabrication d'autres articles en caoutchouc",
    "score": 0
  },
  {
    "code": "252A",
    "nom": "Fabrication de plaques, feuilles, tubes et profilés en plastique",
    "score": 0
  },
  {
    "code": "252C",
    "nom": "Fabrication d'emballages en matière plastique",
    "score": 0
  },
  {
    "code": "252E",
    "nom": "Fabrication d'éléments en matière plastique pour la construction",
    "score": 0
  },
  {
    "code": "252G",
    "nom": "Fabrication d'articles divers en matière plastique",
    "score": 0
  },
  {
    "code": "252H",
    "nom": "Fabrication de pièces techniques en matière plastique",
    "score": 0
  },
  {
    "code": "261A",
    "nom": "Fabrication de verre plat",
    "score": 0
  },
  {
    "code": "261C",
    "nom": "Façonnage et transformation du verre plat",
    "score": 0
  },
  {
    "code": "261E",
    "nom": "Fabrication de verre creux",
    "score": 0
  },
  {
    "code": "261G",
    "nom": "Fabrication de fibres de verre",
    "score": 0
  },
  {
    "code": "261J",
    "nom": "Fabrication de façonnage d'articles techniques en verre",
    "score": 0
  },
  {
    "code": "261K",
    "nom": "Fabrication d'isolateurs en verre",
    "score": 0
  },
  {
    "code": "262A",
    "nom": "Fabrication d'articles céramiques à usage domestique ou ornemental",
    "score": 0
  },
  {
    "code": "262C",
    "nom": "Fabrication d'appareils sanitaires en céramique",
    "score": 0
  },
  {
    "code": "262E",
    "nom": "Fabrication d'isolateurs et pièces isolantes en céramique",
    "score": 0
  },
  {
    "code": "262G",
    "nom": "Fabrication d'autres produits céramiques à usage technique",
    "score": 0
  },
  {
    "code": "262J",
    "nom": "Fabrication d'autres produits céramiques",
    "score": 0
  },
  {
    "code": "262L",
    "nom": "Fabrication de produits céramiques réfractaires",
    "score": 0
  },
  {
    "code": "263Z",
    "nom": "Fabrication de carreaux en céramique",
    "score": 0
  },
  {
    "code": "264A",
    "nom": "Fabrication de briques",
    "score": 0
  },
  {
    "code": "264B",
    "nom": "Fabrication de tuiles",
    "score": 0
  },
  {
    "code": "264C",
    "nom": "Fabrication de produits divers en terre cuite",
    "score": 0
  },
  {
    "code": "265A",
    "nom": "Fabrication de ciment",
    "score": 0
  },
  {
    "code": "265C",
    "nom": "Fabrication de chaux",
    "score": 0
  },
  {
    "code": "265E",
    "nom": "Fabrication de plâtre",
    "score": 0
  },
  {
    "code": "266A",
    "nom": "Fabrication d'éléments en béton pour la construction",
    "score": 0
  },
  {
    "code": "266C",
    "nom": "Fabrication d'éléments en plâtre pour la construction",
    "score": 0
  },
  {
    "code": "266E",
    "nom": "Fabrication de béton prêt à l'emploi",
    "score": 0
  },
  {
    "code": "266G",
    "nom": "Fabrication de mortiers et bétons secs",
    "score": 0
  },
  {
    "code": "266J",
    "nom": "Fabrication d'ouvrages en fibre-ciment",
    "score": 0
  },
  {
    "code": "266L",
    "nom": "Fabrication d'autres ouvrages en béton ou en plâtre",
    "score": 0
  },
  {
    "code": "267Z",
    "nom": "Travail de la pierre",
    "score": 0
  },
  {
    "code": "268A",
    "nom": "Fabrication de produits abrasifs",
    "score": 0
  },
  {
    "code": "268C",
    "nom": "Fabrication de produits minéraux non métalliques n.c.a.",
    "score": 0
  },
  {
    "code": "271Y",
    "nom": "Sidérurgie",
    "score": 0
  },
  {
    "code": "272A",
    "nom": "Fabrication de tubes en fonte",
    "score": 0
  },
  {
    "code": "272C",
    "nom": "Fabrication de tubes en acier",
    "score": 0
  },
  {
    "code": "273A",
    "nom": "Etirage à froid",
    "score": 0
  },
  {
    "code": "273C",
    "nom": "Laminage à froid de feuillards",
    "score": 0
  },
  {
    "code": "273E",
    "nom": "Profilage à froid par formage ou pliage",
    "score": 0
  },
  {
    "code": "273G",
    "nom": "Tréfilage à froid",
    "score": 0
  },
  {
    "code": "274A",
    "nom": "Production de métaux précieux",
    "score": 0
  },
  {
    "code": "274C",
    "nom": "Production d'aluminium",
    "score": 0
  },
  {
    "code": "274D",
    "nom": "Première transformation de l'aluminium",
    "score": 0
  },
  {
    "code": "274F",
    "nom": "Production de plomb, de zinc ou d'étain",
    "score": 0
  },
  {
    "code": "274G",
    "nom": "Première transformation du plomb, du zinc ou de l'étain",
    "score": 0
  },
  {
    "code": "274J",
    "nom": "Production de cuivre",
    "score": 0
  },
  {
    "code": "274K",
    "nom": "Première transformation du cuivre",
    "score": 0
  },
  {
    "code": "274M",
    "nom": "Métallurgie des autres métaux non ferreux",
    "score": 0
  },
  {
    "code": "275A",
    "nom": "Fonderie de fonte",
    "score": 0
  },
  {
    "code": "275C",
    "nom": "Fonderie d'acier",
    "score": 0
  },
  {
    "code": "275E",
    "nom": "Fonderie de métaux légers",
    "score": 0
  },
  {
    "code": "275G",
    "nom": "Fonderie d'autres métaux non ferreux",
    "score": 0
  },
  {
    "code": "281A",
    "nom": "Fabrication de constructions métalliques",
    "score": 0
  },
  {
    "code": "281C",
    "nom": "Fabrication de menuiseries et fermetures métalliques",
    "score": 0
  },
  {
    "code": "282C",
    "nom": "Fabrication de réservoirs, citernes et conteneurs métalliques",
    "score": 0
  },
  {
    "code": "282D",
    "nom": "Fabrication de radiateurs et de chaudières pour le chauffage central",
    "score": 0
  },
  {
    "code": "283A",
    "nom": "Fabrication de générateurs de vapeur",
    "score": 0
  },
  {
    "code": "283B",
    "nom": "Chaudronnerie nucléaire",
    "score": 0
  },
  {
    "code": "283C",
    "nom": "Chaudronnerie-tuyauterie",
    "score": 0
  },
  {
    "code": "284A",
    "nom": "Forge, estampage, matriçage",
    "score": 0
  },
  {
    "code": "284B",
    "nom": "Découpage, emboutissage",
    "score": 0
  },
  {
    "code": "284C",
    "nom": "Métallurgie des poudres",
    "score": 0
  },
  {
    "code": "285A",
    "nom": "Traitement et revêtement des métaux",
    "score": 0
  },
  {
    "code": "285C",
    "nom": "Décolletage",
    "score": 0
  },
  {
    "code": "285D",
    "nom": "Mécanique générale",
    "score": 0
  },
  {
    "code": "286A",
    "nom": "Fabrication de coutellerie",
    "score": 0
  },
  {
    "code": "286C",
    "nom": "Fabrication d'outillage à main",
    "score": 0
  },
  {
    "code": "286D",
    "nom": "Fabrication d'outillage mécanique",
    "score": 0
  },
  {
    "code": "286F",
    "nom": "Fabrication de serrures et ferrures",
    "score": 0
  },
  {
    "code": "287A",
    "nom": "Fabrication de fûts et emballages métalliques similaires",
    "score": 0
  },
  {
    "code": "287C",
    "nom": "Fabrication d'emballages métalliques légers",
    "score": 0
  },
  {
    "code": "287E",
    "nom": "Fabrication d'articles en fils métalliques",
    "score": 0
  },
  {
    "code": "287G",
    "nom": "Visserie et boulonnerie",
    "score": 0
  },
  {
    "code": "287H",
    "nom": "Fabrication de ressorts",
    "score": 0
  },
  {
    "code": "287J",
    "nom": "Fabrication de chaînes",
    "score": 0
  },
  {
    "code": "287L",
    "nom": "Fabrication d'articles métalliques ménagers",
    "score": 0
  },
  {
    "code": "287N",
    "nom": "Fabrication de petits articles métalliques",
    "score": 0
  },
  {
    "code": "287Q",
    "nom": "Fabrication d'articles métalliques divers",
    "score": 0
  },
  {
    "code": "291A",
    "nom": "Fabrication de moteurs et turbines",
    "score": 0
  },
  {
    "code": "291B",
    "nom": "Fabrication de pompes",
    "score": 0
  },
  {
    "code": "291D",
    "nom": "Fabrication de transmissions hydrauliques et pneumatiques",
    "score": 0
  },
  {
    "code": "291E",
    "nom": "Fabrication de compresseurs",
    "score": 0
  },
  {
    "code": "291F",
    "nom": "Fabrication d'articles de robinetterie",
    "score": 0
  },
  {
    "code": "291H",
    "nom": "Fabrication de roulements",
    "score": 0
  },
  {
    "code": "291J",
    "nom": "Fabrication d'organes mécaniques de transmission",
    "score": 0
  },
  {
    "code": "292A",
    "nom": "Fabrication de fours et brûleurs",
    "score": 0
  },
  {
    "code": "292C",
    "nom": "Fabrication d'ascenseurs, monte-charges et escaliers mécaniques",
    "score": 0
  },
  {
    "code": "292D",
    "nom": "Fabrication d'équipements de levage et de manutention",
    "score": 0
  },
  {
    "code": "292F",
    "nom": "Fabrication d'équipements aérauliques et frigorifiques industriels",
    "score": 0
  },
  {
    "code": "292H",
    "nom": "Fabrication d'équipements d'emballage et de conditionnement",
    "score": 0
  },
  {
    "code": "292J",
    "nom": "Fabrication d'appareils de pesage",
    "score": 0
  },
  {
    "code": "292L",
    "nom": "Fabrication de matériel pour les industries chimiques",
    "score": 0
  },
  {
    "code": "292M",
    "nom": "Fabrication d'autres machines d'usage général",
    "score": 0
  },
  {
    "code": "293A",
    "nom": "Fabrication de tracteurs agricoles",
    "score": 0
  },
  {
    "code": "293C",
    "nom": "Réparation de matériel agricole",
    "score": 0
  },
  {
    "code": "293D",
    "nom": "Fabrication de matériel agricole",
    "score": 0
  },
  {
    "code": "294A",
    "nom": "Fabrication de machines-outils à métaux",
    "score": 0
  },
  {
    "code": "294B",
    "nom": "Fabrication de machines-outils à bois",
    "score": 0
  },
  {
    "code": "294C",
    "nom": "Fabrication de machines-outils portatives à moteur incorporé",
    "score": 0
  },
  {
    "code": "294D",
    "nom": "Fabrication de matériel de soudage",
    "score": 0
  },
  {
    "code": "294E",
    "nom": "Fabrication d'autres machines-outils",
    "score": 0
  },
  {
    "code": "295A",
    "nom": "Fabrication de machines pour la métallurgie",
    "score": 0
  },
  {
    "code": "295B",
    "nom": "Fabrication de matériels de mines pour l'extraction",
    "score": 0
  },
  {
    "code": "295D",
    "nom": "Fabrication de matériels de travaux publics",
    "score": 0
  },
  {
    "code": "295E",
    "nom": "Fabrication de machines pour l'industrie agroalimentaire",
    "score": 0
  },
  {
    "code": "295G",
    "nom": "Fabrication de machines pour les industries textiles",
    "score": 0
  },
  {
    "code": "295J",
    "nom": "Fabrication de machines pour les industries du papier et du carton",
    "score": 0
  },
  {
    "code": "295L",
    "nom": "Fabrication de machines d'imprimerie",
    "score": 0
  },
  {
    "code": "295M",
    "nom": "Fabrication de machines pour travail du caoutchouc ou des plastiques",
    "score": 0
  },
  {
    "code": "295N",
    "nom": "Fabrication de moules et modèles",
    "score": 0
  },
  {
    "code": "295Q",
    "nom": "Fabrication de machines d'assemblage automatique",
    "score": 0
  },
  {
    "code": "295R",
    "nom": "Fabrication de machines spécialisées diverses",
    "score": 0
  },
  {
    "code": "296A",
    "nom": "Fabrication d'armement",
    "score": 0
  },
  {
    "code": "296B",
    "nom": "Fabrication d'armes de chasse, de tir et de défense",
    "score": 0
  },
  {
    "code": "297A",
    "nom": "Fabrication d'appareils électroménagers",
    "score": 0
  },
  {
    "code": "297C",
    "nom": "Fabrication d'appareils ménagers non électriques",
    "score": 0
  },
  {
    "code": "300A",
    "nom": "Fabrication de machines de bureau",
    "score": 0
  },
  {
    "code": "300C",
    "nom": "Fabrication d'ordinateurs et d'autres équipements informatiques",
    "score": 0
  },
  {
    "code": "311A",
    "nom": "Fabrication de moteurs, génératrices et transformateurs électriques inférieurs à 750 kW",
    "score": 0
  },
  {
    "code": "311B",
    "nom": "Fabrication de moteurs, génératrices et transformateurs électriques supérieurs à 750 kW",
    "score": 0
  },
  {
    "code": "311C",
    "nom": "Réparation de matériels électriques",
    "score": 0
  },
  {
    "code": "312A",
    "nom": "Fabrication matériel distribution ou commande électrique basse tension",
    "score": 0
  },
  {
    "code": "312B",
    "nom": "Fabrication matériel distribution ou commande électrique haute tension",
    "score": 0
  },
  {
    "code": "313Z",
    "nom": "Fabrication de fils et câbles isolés",
    "score": 0
  },
  {
    "code": "314Z",
    "nom": "Fabrication d'accumulateurs et de piles électriques",
    "score": 0
  },
  {
    "code": "315A",
    "nom": "Fabrication de lampes",
    "score": 0
  },
  {
    "code": "315B",
    "nom": "Fabrication d'appareils électriques autonomes de sécurité",
    "score": 0
  },
  {
    "code": "315C",
    "nom": "Fabrication d'appareils d'éclairage",
    "score": 0
  },
  {
    "code": "316A",
    "nom": "Fabrication de matériels électriques pour moteurs et véhicules",
    "score": 0
  },
  {
    "code": "316C",
    "nom": "Fabrication de matriel électromagnétique industriel",
    "score": 0
  },
  {
    "code": "316D",
    "nom": "Fabrication de matériels électriques n.c.a.",
    "score": 0
  },
  {
    "code": "321A",
    "nom": "Fabrication de composants passifs et de condensateurs",
    "score": 0
  },
  {
    "code": "321C",
    "nom": "Fabrication de composants électroniques actifs",
    "score": 0
  },
  {
    "code": "321D",
    "nom": "Assemblage de cartes électroniques pour compte de tiers",
    "score": 0
  },
  {
    "code": "322A",
    "nom": "Fabrication d'équipements d'émission et de transmission hertzienne",
    "score": 0
  },
  {
    "code": "322B",
    "nom": "Fabrication d'appareils de téléphonie",
    "score": 0
  },
  {
    "code": "323Z",
    "nom": "Fabrication appareils réception, enregistrement, reproduction son et image",
    "score": 0
  },
  {
    "code": "331A",
    "nom": "Fabrication de matériels d'imagerie médicale et de radiologie",
    "score": 0
  },
  {
    "code": "331B",
    "nom": "Fabrication d'appareils médicochirurgicaux",
    "score": 0
  },
  {
    "code": "332A",
    "nom": "Fabrication d'équipements d'aide à la navigation",
    "score": 0
  },
  {
    "code": "332B",
    "nom": "Fabrication d'instrumentation scientifique et technique",
    "score": 0
  },
  {
    "code": "333Z",
    "nom": "Fabrication d'équipements de contrôle des processus industriels",
    "score": 0
  },
  {
    "code": "334A",
    "nom": "Fabrication de lunettes",
    "score": 0
  },
  {
    "code": "334B",
    "nom": "Fabrication d'instruments d'optique et de matériel photographique",
    "score": 0
  },
  {
    "code": "335Z",
    "nom": "Horlogerie",
    "score": 0
  },
  {
    "code": "341Z",
    "nom": "Construction de véhicules automobiles",
    "score": 0
  },
  {
    "code": "342A",
    "nom": "Fabrication de carrosseries automobiles",
    "score": 0
  },
  {
    "code": "342B",
    "nom": "Fabrication de caravanes et véhicules de loisirs",
    "score": 0
  },
  {
    "code": "343Z",
    "nom": "Fabrication d'équipements automobiles",
    "score": 0
  },
  {
    "code": "351A",
    "nom": "Construction de bâtiments de guerre",
    "score": 0
  },
  {
    "code": "351B",
    "nom": "Construction de navires civils",
    "score": 0
  },
  {
    "code": "351C",
    "nom": "Réparation navale",
    "score": 0
  },
  {
    "code": "351E",
    "nom": "Construction de bateaux de plaisance",
    "score": 0
  },
  {
    "code": "352Z",
    "nom": "Construction de matériel ferroviaire roulant",
    "score": 0
  },
  {
    "code": "353A",
    "nom": "Construction de moteurs pour aéronefs",
    "score": 0
  },
  {
    "code": "353B",
    "nom": "Construction de cellules aéronefs",
    "score": 0
  },
  {
    "code": "353C",
    "nom": "Construction de lanceurs et engins spatiaux",
    "score": 0
  },
  {
    "code": "354A",
    "nom": "Fabrication de motocycles",
    "score": 0
  },
  {
    "code": "354C",
    "nom": "Fabrication de bicyclettes",
    "score": 0
  },
  {
    "code": "354E",
    "nom": "Fabrication de véhicules pour invalides",
    "score": 0
  },
  {
    "code": "355Z",
    "nom": "Fabrication de matériels de transport n.c.a.",
    "score": 0
  },
  {
    "code": "361A",
    "nom": "Fabrication de sièges",
    "score": 0
  },
  {
    "code": "361C",
    "nom": "Fabrication de meubles de bureau et de magasin",
    "score": 0
  },
  {
    "code": "361E",
    "nom": "Fabrication de meubles de cuisine",
    "score": 0
  },
  {
    "code": "361G",
    "nom": "Fabrication de meubles meublant",
    "score": 0
  },
  {
    "code": "361H",
    "nom": "Fabrication de meubles de jardin et d'extérieur",
    "score": 0
  },
  {
    "code": "361J",
    "nom": "Fabrication de meubles n.c.a.",
    "score": 0
  },
  {
    "code": "361K",
    "nom": "Industries connexes de l'ameublement",
    "score": 0
  },
  {
    "code": "361M",
    "nom": "Fabrication de matelas",
    "score": 0
  },
  {
    "code": "362A",
    "nom": "Fabrication de monnaies et médailles",
    "score": 0
  },
  {
    "code": "362C",
    "nom": "Bijouterie, joaillerie, orfèvrerie",
    "score": 0
  },
  {
    "code": "363Z",
    "nom": "Fabrication d'instruments de musique",
    "score": 0
  },
  {
    "code": "364Z",
    "nom": "Fabrication d'articles de sport",
    "score": 0
  },
  {
    "code": "365Z",
    "nom": "Fabrication de jeux et jouets",
    "score": 0
  },
  {
    "code": "366A",
    "nom": "Bijouterie fantaisie",
    "score": 0
  },
  {
    "code": "366C",
    "nom": "Industrie de la brosserie",
    "score": 0
  },
  {
    "code": "366E",
    "nom": "Autres activités manufacturières n.c.a.",
    "score": 0
  },
  {
    "code": "371Z",
    "nom": "Récupération de matières métalliques recyclables",
    "score": 0
  },
  {
    "code": "372Z",
    "nom": "Récupération de matières non métalliques recyclables",
    "score": 0
  },
  {
    "code": "401A",
    "nom": "Production d'électricité",
    "score": 0
  },
  {
    "code": "401C",
    "nom": "Transport d'électricité",
    "score": 0
  },
  {
    "code": "401E",
    "nom": "Distribution et commerce d'électricité",
    "score": 0
  },
  {
    "code": "402A",
    "nom": "Production de combustibles gazeux",
    "score": 0
  },
  {
    "code": "402C",
    "nom": "Distribution de combustibles gazeux",
    "score": 0
  },
  {
    "code": "403Z",
    "nom": "Production et distribution de chaleur",
    "score": 0
  },
  {
    "code": "410Z",
    "nom": "Captage, traitement et distribution d'eau",
    "score": 0
  },
  {
    "code": "451A",
    "nom": "Terrassements divers, démolition",
    "score": 0
  },
  {
    "code": "451B",
    "nom": "Terrassements en grande masse",
    "score": 0
  },
  {
    "code": "451D",
    "nom": "Forages et sondages",
    "score": 0
  },
  {
    "code": "452A",
    "nom": "Construction de maisons individuelles",
    "score": 0
  },
  {
    "code": "452B",
    "nom": "Construction de bâtiments divers",
    "score": 0
  },
  {
    "code": "452C",
    "nom": "Construction d'ouvrages d'art",
    "score": 0
  },
  {
    "code": "452D",
    "nom": "Travaux souterrains",
    "score": 0
  },
  {
    "code": "452E",
    "nom": "Réalisation de réseaux",
    "score": 0
  },
  {
    "code": "452F",
    "nom": "Construction de lignes électriques et de télécommunication",
    "score": 0
  },
  {
    "code": "452J",
    "nom": "Réalisation de couvertures par éléments",
    "score": 0
  },
  {
    "code": "452K",
    "nom": "Travaux d'étanchéification",
    "score": 0
  },
  {
    "code": "452L",
    "nom": "Travaux de charpente",
    "score": 0
  },
  {
    "code": "452N",
    "nom": "Construction de voies ferrées",
    "score": 0
  },
  {
    "code": "452P",
    "nom": "Construction de chaussées routières et de sols sportifs",
    "score": 0
  },
  {
    "code": "452R",
    "nom": "Travaux maritimes et fluviaux",
    "score": 0
  },
  {
    "code": "452T",
    "nom": "Levage, montage",
    "score": 0
  },
  {
    "code": "452U",
    "nom": "Autres travaux spécialisés de construction",
    "score": 0
  },
  {
    "code": "452V",
    "nom": "Travaux de maçonnerie générale",
    "score": 0
  },
  {
    "code": "453A",
    "nom": "Travaux d'installation électrique",
    "score": 0
  },
  {
    "code": "453C",
    "nom": "Travaux d'isolation",
    "score": 0
  },
  {
    "code": "453E",
    "nom": "Installation d'eau et de gaz",
    "score": 0
  },
  {
    "code": "453F",
    "nom": "Installation d'équipements thermiques et de climatisation",
    "score": 0
  },
  {
    "code": "453H",
    "nom": "Autres travaux d'installation",
    "score": 0
  },
  {
    "code": "454A",
    "nom": "Plâtrerie",
    "score": 0
  },
  {
    "code": "454C",
    "nom": "Menuiserie bois et matières plastiques",
    "score": 0
  },
  {
    "code": "454D",
    "nom": "Menuiserie métallique, serrurerie",
    "score": 0
  },
  {
    "code": "454F",
    "nom": "Revêtement des sols et des murs",
    "score": 0
  },
  {
    "code": "454H",
    "nom": "Miroiterie de bâtiment, vitrerie",
    "score": 0
  },
  {
    "code": "454J",
    "nom": "Peinture",
    "score": 0
  },
  {
    "code": "454L",
    "nom": "Agencement de lieux de vente",
    "score": 0
  },
  {
    "code": "454M",
    "nom": "Travaux de finition n.c.a.",
    "score": 0
  },
  {
    "code": "455Z",
    "nom": "Location avec opérateur de matériel de construction",
    "score": 0
  },
  {
    "code": "501Z",
    "nom": "Commerce de véhicules automobiles",
    "score": 0
  },
  {
    "code": "502Z",
    "nom": "Entretien et réparation de véhicules automobiles",
    "score": 0
  },
  {
    "code": "503A",
    "nom": "Commerce de gros d'équipements automobiles",
    "score": 0
  },
  {
    "code": "503B",
    "nom": "Commerce de détail d'équipements automobiles",
    "score": 0
  },
  {
    "code": "504Z",
    "nom": "Commerce et réparation de motocycles",
    "score": 0
  },
  {
    "code": "505Z",
    "nom": "Commerce de détail de carburants",
    "score": 0
  },
  {
    "code": "511A",
    "nom": "Intermédiaires du commerce en matières premières agricoles ou textiles, animaux vivants",
    "score": 0
  },
  {
    "code": "511C",
    "nom": "Intermédiaires du commerce en combustibles, métaux, minéraux, produits chimiques",
    "score": 0
  },
  {
    "code": "511E",
    "nom": "Intermédiaires du commerce en bois et matériaux de construction",
    "score": 0
  },
  {
    "code": "511G",
    "nom": "Intermédiaires du commerce en machines, équipemnts industriels, navires, avions",
    "score": 0
  },
  {
    "code": "511J",
    "nom": "Intermédiaires du commerce en meubles, articles de ménage et quincaillerie",
    "score": 0
  },
  {
    "code": "511L",
    "nom": "Intermédiaires du commerce en textiles, habillement, chaussures, articles cuir",
    "score": 0
  },
  {
    "code": "511N",
    "nom": "Intermédiaires du commerce en produits alimentaires",
    "score": 0
  },
  {
    "code": "511P",
    "nom": "Centrales d'achats alimentaires",
    "score": 0
  },
  {
    "code": "511R",
    "nom": "Autres intermédiaires spécialisés du commerce",
    "score": 0
  },
  {
    "code": "511T",
    "nom": "Intermédiaires non spécialisés du commerce",
    "score": 0
  },
  {
    "code": "511U",
    "nom": "Centrales d'achats non alimentaires",
    "score": 0
  },
  {
    "code": "512A",
    "nom": "Commerce de gros de céréales et aliments pour le bétail",
    "score": 0
  },
  {
    "code": "512C",
    "nom": "Commerce de gros de fleurs et plantes",
    "score": 0
  },
  {
    "code": "512E",
    "nom": "Commerce de gros d'animaux vivants",
    "score": 0
  },
  {
    "code": "512G",
    "nom": "Commerce de gros de cuirs et peaux",
    "score": 0
  },
  {
    "code": "512J",
    "nom": "Commerce de gros de tabac non manufacturé",
    "score": 0
  },
  {
    "code": "513A",
    "nom": "Commerce de gros de fruits et légumes",
    "score": 0
  },
  {
    "code": "513C",
    "nom": "Commerce de gros de viandes de boucherie",
    "score": 0
  },
  {
    "code": "513D",
    "nom": "Commerce de gros de produits à base de viande",
    "score": 0
  },
  {
    "code": "513E",
    "nom": "Commerce de gros de volailles et gibiers",
    "score": 0
  },
  {
    "code": "513G",
    "nom": "Commerce de gros de produits laitiers, oeufs, huiles",
    "score": 0
  },
  {
    "code": "513J",
    "nom": "Commerce de gros de boissons",
    "score": 0
  },
  {
    "code": "513L",
    "nom": "Commerce de gros de tabac",
    "score": 0
  },
  {
    "code": "513N",
    "nom": "Commerce de gros de sucre, chocolat et confiserie",
    "score": 0
  },
  {
    "code": "513Q",
    "nom": "Commerce de gros de café, thé, cacao et épices",
    "score": 0
  },
  {
    "code": "513S",
    "nom": "Commerce de gros de poissons, crustacés et mollusques",
    "score": 0
  },
  {
    "code": "513T",
    "nom": "Commerce de gros alimentaire spécialisé divers",
    "score": 0
  },
  {
    "code": "513V",
    "nom": "Commerce de gros de produits surgelés",
    "score": 0
  },
  {
    "code": "513W",
    "nom": "Commerce de gros alimentaire non spécialisé",
    "score": 0
  },
  {
    "code": "514A",
    "nom": "Commerce de gros de textiles",
    "score": 0
  },
  {
    "code": "514C",
    "nom": "Commerce de gros d'habillement",
    "score": 0
  },
  {
    "code": "514D",
    "nom": "Commerce de gros de la chaussure",
    "score": 0
  },
  {
    "code": "514F",
    "nom": "Commerce de gros d'appareils électroménagers et de radio télévision",
    "score": 0
  },
  {
    "code": "514H",
    "nom": "Commerce de gros de vaisselle et verrerie de ménage",
    "score": 0
  },
  {
    "code": "514J",
    "nom": "Commerce de gros de produits pour entretien et aménagement habitat",
    "score": 0
  },
  {
    "code": "514L",
    "nom": "Commerce de gros de parfumerie et produits de beauté",
    "score": 0
  },
  {
    "code": "514N",
    "nom": "Commerce de gros de produits pharmaceutiques",
    "score": 0
  },
  {
    "code": "514Q",
    "nom": "Commerce de gros de papeterie",
    "score": 0
  },
  {
    "code": "514R",
    "nom": "Commerce de gros de jouets",
    "score": 0
  },
  {
    "code": "514S",
    "nom": "Autres commerces de gros de biens de consommation",
    "score": 0
  },
  {
    "code": "515A",
    "nom": "Commerce de gros de combustibles",
    "score": 0
  },
  {
    "code": "515C",
    "nom": "Commerce de gros de minerais et métaux",
    "score": 0
  },
  {
    "code": "515E",
    "nom": "Commerce de gros de bois et de produits dérivés",
    "score": 0
  },
  {
    "code": "515F",
    "nom": "Commerce de gros de matériaux de construction et appareils sanitaires",
    "score": 0
  },
  {
    "code": "515H",
    "nom": "Commerce de gros de quincaillerie",
    "score": 0
  },
  {
    "code": "515J",
    "nom": "Commerce de gros de fournitures pour plomberie et chauffage",
    "score": 0
  },
  {
    "code": "515L",
    "nom": "Commerce de gros de produits chimiques",
    "score": 0
  },
  {
    "code": "515N",
    "nom": "Commerce de gros d'autres produits intermédiaires",
    "score": 0
  },
  {
    "code": "515Q",
    "nom": "Commerce de gros de déchets et débris",
    "score": 0
  },
  {
    "code": "518A",
    "nom": "Commerce de gros de machines-outils",
    "score": 0
  },
  {
    "code": "518C",
    "nom": "Commerce de gros de machines pour l'extraction, la construction et le génie civil",
    "score": 0
  },
  {
    "code": "518E",
    "nom": "Commerce de gros de machines pour l'industrie textile et l'habillement",
    "score": 0
  },
  {
    "code": "518G",
    "nom": "Commerce de gros d'ordinateurs, d'équipements informatiques périphériques et de progiciels",
    "score": 0
  },
  {
    "code": "518H",
    "nom": "Commerce de gros d'autres machines et équipements de bureau",
    "score": 0
  },
  {
    "code": "518J",
    "nom": "Commerce de gros de composants et d'autres équipements électroniques",
    "score": 0
  },
  {
    "code": "518L",
    "nom": "Commerce de gros de matériel électrique",
    "score": 0
  },
  {
    "code": "518M",
    "nom": "Commerce de gros de fournitures et équipements industriels divers",
    "score": 0
  },
  {
    "code": "518N",
    "nom": "Commerce de gros de fournitures et équipements divers pour le commerce et les services",
    "score": 0
  },
  {
    "code": "518P",
    "nom": "Commerce de gros de matériel agricole",
    "score": 0
  },
  {
    "code": "519A",
    "nom": "Autres commerces de gros spécialisés",
    "score": 0
  },
  {
    "code": "519B",
    "nom": "Commerce de gros non spécialisé",
    "score": 0
  },
  {
    "code": "521A",
    "nom": "Commerce de détail de produits surgelés",
    "score": 0
  },
  {
    "code": "521B",
    "nom": "Commerce d'alimentation générale",
    "score": 0
  },
  {
    "code": "521C",
    "nom": "Superettes",
    "score": 0
  },
  {
    "code": "521D",
    "nom": "Supermarchés",
    "score": 0
  },
  {
    "code": "521E",
    "nom": "Magasins populaires",
    "score": 0
  },
  {
    "code": "521F",
    "nom": "Hypermarchés",
    "score": 0
  },
  {
    "code": "521H",
    "nom": "Grands magasins",
    "score": 0
  },
  {
    "code": "521J",
    "nom": "Autres commerces de détail en magasin non spécialisé",
    "score": 0
  },
  {
    "code": "522A",
    "nom": "Commerce de détail de fruits et légumes",
    "score": 0
  },
  {
    "code": "522C",
    "nom": "Commerce de détail de viandes et produits à base de viande",
    "score": 0
  },
  {
    "code": "522E",
    "nom": "Commerce de détail de poissons, crustacés et mollusques",
    "score": 0
  },
  {
    "code": "522G",
    "nom": "Commerce de détail de pain, pâtisserie et confiserie",
    "score": 0
  },
  {
    "code": "522J",
    "nom": "Commerce de détail de boissons",
    "score": 0
  },
  {
    "code": "522L",
    "nom": "Commerce de détail de tabac",
    "score": 0
  },
  {
    "code": "522N",
    "nom": "Commerce de détail de produits laitiers",
    "score": 0
  },
  {
    "code": "522P",
    "nom": "Commerce de détail alimentaire spécialisé divers",
    "score": 0
  },
  {
    "code": "523A",
    "nom": "Commerce de détail de produits pharmaceutiques",
    "score": 0
  },
  {
    "code": "523C",
    "nom": "Commerce de détail d'articles médicaux et orthopédiques",
    "score": 0
  },
  {
    "code": "523E",
    "nom": "Commerce de détail de parfumerie et de produits de beauté",
    "score": 0
  },
  {
    "code": "524A",
    "nom": "Commerce de détail de textiles",
    "score": 0
  },
  {
    "code": "524C",
    "nom": "Commerce de détail d'habillement",
    "score": 0
  },
  {
    "code": "524E",
    "nom": "Commerce de détail de la chaussure",
    "score": 0
  },
  {
    "code": "524F",
    "nom": "Commerce de détail de maroquinerie et d'articles de voyage",
    "score": 0
  },
  {
    "code": "524H",
    "nom": "Commerce de détail de meubles",
    "score": 0
  },
  {
    "code": "524J",
    "nom": "Commerce de détail d'équipements du foyer",
    "score": 0
  },
  {
    "code": "524L",
    "nom": "Commerce de détail d'appareils électroménagers et de radio télévision",
    "score": 0
  },
  {
    "code": "524N",
    "nom": "Commerce de détail de quincaillerie",
    "score": 0
  },
  {
    "code": "524P",
    "nom": "Commerce de détail de bricolage",
    "score": 0
  },
  {
    "code": "524R",
    "nom": "Commerce de détail de livres, journaux et papeterie",
    "score": 0
  },
  {
    "code": "524T",
    "nom": "Commerce de détail d'optique et de photographie",
    "score": 0
  },
  {
    "code": "524U",
    "nom": "Commerce de détail de revêtements de sols et de murs",
    "score": 0
  },
  {
    "code": "524V",
    "nom": "Commerce de détail d'horlogerie et de bijouterie",
    "score": 0
  },
  {
    "code": "524W",
    "nom": "Commerce de détail d'articles de sport et de loisir",
    "score": 0
  },
  {
    "code": "524X",
    "nom": "Commerce de détail de fleurs",
    "score": 0
  },
  {
    "code": "524Y",
    "nom": "Commerce de détail de charbon et combustibles",
    "score": 0
  },
  {
    "code": "524Z",
    "nom": "Commerce de détail divers en magasin spécialisé",
    "score": 0
  },
  {
    "code": "525Z",
    "nom": "Commerce de détail de biens d'occasion en magasin",
    "score": 0
  },
  {
    "code": "526A",
    "nom": "Vente par correspondance sur catalogue général",
    "score": 0
  },
  {
    "code": "526B",
    "nom": "Vente par correspondance spécialisée",
    "score": 0
  },
  {
    "code": "526D",
    "nom": "Commerce de détail alimentaire sur éventaires et marchés",
    "score": 0
  },
  {
    "code": "526E",
    "nom": "Commerce de détail non alimentaire sur éventaires et marchés",
    "score": 0
  },
  {
    "code": "526G",
    "nom": "Vente à domicile",
    "score": 0
  },
  {
    "code": "526H",
    "nom": "Vente par automate",
    "score": 0
  },
  {
    "code": "527A",
    "nom": "Réparation de chaussures et articles en cuir",
    "score": 0
  },
  {
    "code": "527C",
    "nom": "Réparation de matériel électronique grand public",
    "score": 0
  },
  {
    "code": "527D",
    "nom": "Réparation d'articles électriques à usage domestique",
    "score": 0
  },
  {
    "code": "527F",
    "nom": "Réparation de montres, horloges et bijoux",
    "score": 0
  },
  {
    "code": "527H",
    "nom": "Réparation d'articles personnels et domestiques n.c.a.",
    "score": 0
  },
  {
    "code": "551A",
    "nom": "Hôtels touristiques avec restaurant",
    "score": 0
  },
  {
    "code": "551C",
    "nom": "Hôtels touristique sans restaurant",
    "score": 0
  },
  {
    "code": "551E",
    "nom": "Autres hôtels",
    "score": 0
  },
  {
    "code": "552A",
    "nom": "Auberges de jeunesse et refuges",
    "score": 0
  },
  {
    "code": "552C",
    "nom": "Exploitation de terrains de camping",
    "score": 0
  },
  {
    "code": "552E",
    "nom": "Autres hébergements touristiques",
    "score": 0
  },
  {
    "code": "552F",
    "nom": "Hébergement collectif non touristique",
    "score": 0
  },
  {
    "code": "553A",
    "nom": "Restauration de type traditionnel",
    "score": 0
  },
  {
    "code": "553B",
    "nom": "Restauration de type rapide",
    "score": 0
  },
  {
    "code": "554A",
    "nom": "Cafés tabacs",
    "score": 0
  },
  {
    "code": "554B",
    "nom": "Débits de boissons",
    "score": 0
  },
  {
    "code": "554C",
    "nom": "Discothèques",
    "score": 0
  },
  {
    "code": "555A",
    "nom": "Cantines, restaurants d'entreprises",
    "score": 0
  },
  {
    "code": "555C",
    "nom": "Restauration collective sous contrat",
    "score": 0
  },
  {
    "code": "555D",
    "nom": "Traiteurs, organisation de réceptions",
    "score": 0
  },
  {
    "code": "601Z",
    "nom": "Transport ferroviaire",
    "score": 0
  },
  {
    "code": "602A",
    "nom": "Transport urbain de voyageurs",
    "score": 0
  },
  {
    "code": "602B",
    "nom": "Transport routier régulier de voyageurs",
    "score": 0
  },
  {
    "code": "602C",
    "nom": "Téléphériques, remontées mécaniques",
    "score": 0
  },
  {
    "code": "602E",
    "nom": "Transport de voyageurs par taxis",
    "score": 0
  },
  {
    "code": "602G",
    "nom": "Autres transports routiers de voyageurs",
    "score": 0
  },
  {
    "code": "602L",
    "nom": "Transport routier de marchandises de proximité",
    "score": 0
  },
  {
    "code": "602M",
    "nom": "Transport routier de marchandises interurbain",
    "score": 0
  },
  {
    "code": "602N",
    "nom": "Déménagement",
    "score": 0
  },
  {
    "code": "602P",
    "nom": "Location de camions avec conducteur",
    "score": 0
  },
  {
    "code": "603Z",
    "nom": "Transport par conduites",
    "score": 0
  },
  {
    "code": "611A",
    "nom": "Transport maritime",
    "score": 0
  },
  {
    "code": "611B",
    "nom": "Transport côtier",
    "score": 0
  },
  {
    "code": "612Z",
    "nom": "Transport fluvial",
    "score": 0
  },
  {
    "code": "621Z",
    "nom": "Transport aérien régulier",
    "score": 0
  },
  {
    "code": "622Z",
    "nom": "Transport aérien non régulier",
    "score": 0
  },
  {
    "code": "623Z",
    "nom": "Transport spatial",
    "score": 0
  },
  {
    "code": "631A",
    "nom": "Manutention portuaire",
    "score": 0
  },
  {
    "code": "631B",
    "nom": "Manutention non portuaire",
    "score": 0
  },
  {
    "code": "631D",
    "nom": "Entreposage frigorifique",
    "score": 0
  },
  {
    "code": "631E",
    "nom": "Entreposage non frigorifique",
    "score": 0
  },
  {
    "code": "632A",
    "nom": "Gestion d'infrastructures de transports terrestres",
    "score": 0
  },
  {
    "code": "632C",
    "nom": "Services portuaires, maritimes et fluviaux",
    "score": 0
  },
  {
    "code": "632E",
    "nom": "Services aéroportuaires",
    "score": 0
  },
  {
    "code": "633Z",
    "nom": "Agences de voyage",
    "score": 0
  },
  {
    "code": "634A",
    "nom": "Messagerie, fret express",
    "score": 0
  },
  {
    "code": "634B",
    "nom": "Affrètement",
    "score": 0
  },
  {
    "code": "634C",
    "nom": "Organisation des transports internationaux",
    "score": 0
  },
  {
    "code": "641A",
    "nom": "Postes nationales",
    "score": 0
  },
  {
    "code": "641C",
    "nom": "Autres activités de courrier",
    "score": 0
  },
  {
    "code": "642C",
    "nom": "Télécommunications (hors transmission audiovisuelle)",
    "score": 0
  },
  {
    "code": "642D",
    "nom": "Transmission d'émissions de radio et de télévision",
    "score": 0
  },
  {
    "code": "651A",
    "nom": "Banque centrale",
    "score": 0
  },
  {
    "code": "651C",
    "nom": "Banques",
    "score": 0
  },
  {
    "code": "651D",
    "nom": "Banques mutualistes",
    "score": 0
  },
  {
    "code": "651E",
    "nom": "Caisses d'épargne",
    "score": 0
  },
  {
    "code": "651F",
    "nom": "Intermédiations monétaires n.c.a.",
    "score": 0
  },
  {
    "code": "652A",
    "nom": "Crédit-bail",
    "score": 0
  },
  {
    "code": "652C",
    "nom": "Distribution de crédit",
    "score": 0
  },
  {
    "code": "652E",
    "nom": "Organismes de placement en valeurs mobilières",
    "score": 0
  },
  {
    "code": "652F",
    "nom": "Intermédiations financières diverses",
    "score": 0
  },
  {
    "code": "660A",
    "nom": "Assurance vie et capitalisation",
    "score": 0
  },
  {
    "code": "660C",
    "nom": "Caisses de retraite",
    "score": 0
  },
  {
    "code": "660E",
    "nom": "Assurance dommages",
    "score": 0
  },
  {
    "code": "660F",
    "nom": "Réassurance",
    "score": 0
  },
  {
    "code": "660G",
    "nom": "Assurance relevant du code de la mutualité",
    "score": 0
  },
  {
    "code": "671A",
    "nom": "Administration de marchés financiers",
    "score": 0
  },
  {
    "code": "671C",
    "nom": "Gestion de portefeuilles",
    "score": 0
  },
  {
    "code": "671E",
    "nom": "Autres auxiliaires financiers",
    "score": 0
  },
  {
    "code": "672Z",
    "nom": "Auxiliaires d'assurance",
    "score": 0
  },
  {
    "code": "701A",
    "nom": "Promotion immobilière de logements",
    "score": 0
  },
  {
    "code": "701B",
    "nom": "Promotion immobilière de bureaux",
    "score": 0
  },
  {
    "code": "701C",
    "nom": "Promotion immobilière d'infrastructures",
    "score": 0
  },
  {
    "code": "701D",
    "nom": "Supports juridiques de programmes",
    "score": 0
  },
  {
    "code": "701F",
    "nom": "Marchands de biens immobiliers",
    "score": 0
  },
  {
    "code": "702A",
    "nom": "Location de logements",
    "score": 0
  },
  {
    "code": "702B",
    "nom": "Location de terrains",
    "score": 0
  },
  {
    "code": "702C",
    "nom": "Location d'autres biens immobiliers",
    "score": 0
  },
  {
    "code": "703A",
    "nom": "Agences immobilières",
    "score": 0
  },
  {
    "code": "703C",
    "nom": "Administration d'immeubles résidentiels",
    "score": 0
  },
  {
    "code": "703D",
    "nom": "Administration d'autres biens immobiliers",
    "score": 0
  },
  {
    "code": "703E",
    "nom": "Supports juridiques de gestion de patrimoine",
    "score": 0
  },
  {
    "code": "711A",
    "nom": "Location de courte durée de véhicules automobiles",
    "score": 0
  },
  {
    "code": "711B",
    "nom": "Location de longue durée de véhicules automobiles",
    "score": 0
  },
  {
    "code": "712A",
    "nom": "Location d'autres matériels de transport terrestre",
    "score": 0
  },
  {
    "code": "712C",
    "nom": "Location de matériels de transport par eau",
    "score": 0
  },
  {
    "code": "712E",
    "nom": "Location de matériel de transport aérien",
    "score": 0
  },
  {
    "code": "713A",
    "nom": "Location de matériel agricole",
    "score": 0
  },
  {
    "code": "713C",
    "nom": "Location de machines et équipements pour la construction",
    "score": 0
  },
  {
    "code": "713E",
    "nom": "Location de machines de bureau et de matériel informatique",
    "score": 0
  },
  {
    "code": "713G",
    "nom": "Location de machines et équipements divers",
    "score": 0
  },
  {
    "code": "714A",
    "nom": "Location de linge",
    "score": 0
  },
  {
    "code": "714B",
    "nom": "Location d'autres biens personnels et domestiques",
    "score": 0
  },
  {
    "code": "721Z",
    "nom": "Conseil en systèmes informatiques",
    "score": 0
  },
  {
    "code": "722A",
    "nom": "Edition de logiciels (non personnalisés)",
    "score": 0
  },
  {
    "code": "722B",
    "nom": "Autres activités de réalisation de logiciels",
    "score": 0
  },
  {
    "code": "723Z",
    "nom": "Traitement de données",
    "score": 0
  },
  {
    "code": "724Z",
    "nom": "Activités de banques de données",
    "score": 0
  },
  {
    "code": "725Z",
    "nom": "Entretien, réparation machines de bureau et matériel informatique",
    "score": 0
  },
  {
    "code": "726Z",
    "nom": "Autres activités rattachées à l'informatique",
    "score": 0
  },
  {
    "code": "731Z",
    "nom": "Recherche-développement en sciences physiques et naturelles",
    "score": 0
  },
  {
    "code": "732Z",
    "nom": "Recherche-développement en sciences humaines et sociales",
    "score": 0
  },
  {
    "code": "741A",
    "nom": "Activités juridiques",
    "score": 0
  },
  {
    "code": "741C",
    "nom": "Activités comptables",
    "score": 0
  },
  {
    "code": "741E",
    "nom": "Etudes de marché et sondages",
    "score": 0
  },
  {
    "code": "741G",
    "nom": "Conseil pour les affaires et la gestion",
    "score": 0
  },
  {
    "code": "741J",
    "nom": "Administration d'entreprises",
    "score": 0
  },
  {
    "code": "742A",
    "nom": "Activités d'architecture",
    "score": 0
  },
  {
    "code": "742B",
    "nom": "Métreurs, géomètres",
    "score": 0
  },
  {
    "code": "742C",
    "nom": "Ingénierie, études techniques",
    "score": 0
  },
  {
    "code": "743A",
    "nom": "Contrôle technique automobile",
    "score": 0
  },
  {
    "code": "743B",
    "nom": "Analyses, essais et inspections techniques",
    "score": 0
  },
  {
    "code": "744A",
    "nom": "Gestion de supports de publicité",
    "score": 0
  },
  {
    "code": "744B",
    "nom": "Agences, conseil en publicité",
    "score": 0
  },
  {
    "code": "745A",
    "nom": "Sélection et mise à disposition de personnel",
    "score": 0
  },
  {
    "code": "745B",
    "nom": "Travail temporaire",
    "score": 0
  },
  {
    "code": "746Z",
    "nom": "Enquêtes et sécurité",
    "score": 0
  },
  {
    "code": "747Z",
    "nom": "Activités de nettoyage",
    "score": 0
  },
  {
    "code": "748A",
    "nom": "Studios et autres activités photographiques",
    "score": 0
  },
  {
    "code": "748B",
    "nom": "Laboratoires de développement et de tirage",
    "score": 0
  },
  {
    "code": "748D",
    "nom": "Conditionnement à façon",
    "score": 0
  },
  {
    "code": "748F",
    "nom": "Secrétariat et traduction",
    "score": 0
  },
  {
    "code": "748G",
    "nom": "Routage",
    "score": 0
  },
  {
    "code": "748H",
    "nom": "Centres d'appel",
    "score": 0
  },
  {
    "code": "748J",
    "nom": "Organisation de foires et salons",
    "score": 0
  },
  {
    "code": "748K",
    "nom": "Services annexes à la production",
    "score": 0
  },
  {
    "code": "751A",
    "nom": "Administration publique générale",
    "score": 0
  },
  {
    "code": "751C",
    "nom": "Tutelle des activités sociales",
    "score": 0
  },
  {
    "code": "751E",
    "nom": "Tutelle des activités économiques",
    "score": 0
  },
  {
    "code": "751G",
    "nom": "Activités de soutien aux administrations",
    "score": 0
  },
  {
    "code": "752A",
    "nom": "Affaires étrangères",
    "score": 0
  },
  {
    "code": "752C",
    "nom": "Défense",
    "score": 0
  },
  {
    "code": "752E",
    "nom": "Justice",
    "score": 0
  },
  {
    "code": "752G",
    "nom": "Police",
    "score": 0
  },
  {
    "code": "752J",
    "nom": "Protection civile",
    "score": 0
  },
  {
    "code": "753A",
    "nom": "Activités générales de sécurité sociale",
    "score": 0
  },
  {
    "code": "753B",
    "nom": "Gestion des retraites complémentaires",
    "score": 0
  },
  {
    "code": "753C",
    "nom": "Distribution sociale de revenus",
    "score": 0
  },
  {
    "code": "801Z",
    "nom": "Enseignement primaire",
    "score": 0
  },
  {
    "code": "802A",
    "nom": "Enseignement secondaire général",
    "score": 0
  },
  {
    "code": "802C",
    "nom": "Enseignement secondaire technique ou professionnel",
    "score": 0
  },
  {
    "code": "803Z",
    "nom": "Enseignement supérieur",
    "score": 0
  },
  {
    "code": "804A",
    "nom": "Ecoles de conduite",
    "score": 0
  },
  {
    "code": "804C",
    "nom": "Formation des adultes et formation continue",
    "score": 0
  },
  {
    "code": "804D",
    "nom": "Autres enseignements",
    "score": 0
  },
  {
    "code": "851A",
    "nom": "Activités hospitalières",
    "score": 0
  },
  {
    "code": "851C",
    "nom": "Pratique médicale",
    "score": 0
  },
  {
    "code": "851E",
    "nom": "Pratique dentaire",
    "score": 0
  },
  {
    "code": "851G",
    "nom": "Activités des auxiliaires médicaux",
    "score": 0
  },
  {
    "code": "851H",
    "nom": "Soins hors d'un cadre règlementé",
    "score": 0
  },
  {
    "code": "851J",
    "nom": "Ambulances",
    "score": 0
  },
  {
    "code": "851K",
    "nom": "Laboratoires d'analyses médicales",
    "score": 0
  },
  {
    "code": "851L",
    "nom": "Centres de collecte et banques d'organes",
    "score": 0
  },
  {
    "code": "852Z",
    "nom": "Activités vétérinaires",
    "score": 0
  },
  {
    "code": "853A",
    "nom": "Accueil des enfants handicapés",
    "score": 0
  },
  {
    "code": "853B",
    "nom": "Accueil des enfants en difficulté",
    "score": 0
  },
  {
    "code": "853C",
    "nom": "Accueil des adultes handicapés",
    "score": 0
  },
  {
    "code": "853D",
    "nom": "Accueil des personnes âgées",
    "score": 0
  },
  {
    "code": "853E",
    "nom": "Autres hébergements sociaux",
    "score": 0
  },
  {
    "code": "853G",
    "nom": "Crèches et garderies d'enfants",
    "score": 0
  },
  {
    "code": "853H",
    "nom": "Aide par le travail, ateliers protégés",
    "score": 0
  },
  {
    "code": "853J",
    "nom": "Aide à domicile",
    "score": 0
  },
  {
    "code": "853K",
    "nom": "Autres formes d'action sociale",
    "score": 0
  },
  {
    "code": "900A",
    "nom": "Epuration des eaux usées",
    "score": 0
  },
  {
    "code": "900B",
    "nom": "Enlèvement et traitement des ordures ménagères",
    "score": 0
  },
  {
    "code": "900E",
    "nom": "Traitement des autres déchets solides",
    "score": 0
  },
  {
    "code": "900G",
    "nom": "Autres travaux d'assainissement et de voierie",
    "score": 0
  },
  {
    "code": "911A",
    "nom": "Organisations patronales et consulaires",
    "score": 0
  },
  {
    "code": "911C",
    "nom": "Organisations professionnelles",
    "score": 0
  },
  {
    "code": "912Z",
    "nom": "Syndicats de salariés",
    "score": 0
  },
  {
    "code": "913A",
    "nom": "Organisations religieuses",
    "score": 0
  },
  {
    "code": "913C",
    "nom": "Organisations politiques",
    "score": 0
  },
  {
    "code": "913E",
    "nom": "Organisations associatives n.c.a.",
    "score": 0
  },
  {
    "code": "921A",
    "nom": "Production de films pour la télévision",
    "score": 0
  },
  {
    "code": "921B",
    "nom": "Production de films institutionnels et publicitaires",
    "score": 0
  },
  {
    "code": "921C",
    "nom": "Production de films pour le cinéma",
    "score": 0
  },
  {
    "code": "921D",
    "nom": "Prestations techniques pour le cinéma et la télévision",
    "score": 0
  },
  {
    "code": "921F",
    "nom": "Distribution de films cinématographiques",
    "score": 0
  },
  {
    "code": "921G",
    "nom": "Edition et distribution vidéo",
    "score": 0
  },
  {
    "code": "921J",
    "nom": "Projection de films cinématographiques",
    "score": 0
  },
  {
    "code": "922A",
    "nom": "Activités de radio",
    "score": 0
  },
  {
    "code": "922B",
    "nom": "Production de programmes de télévision",
    "score": 0
  },
  {
    "code": "922D",
    "nom": "Edition de chaînes généralistes",
    "score": 0
  },
  {
    "code": "922E",
    "nom": "Edition de chaînes thématiques",
    "score": 0
  },
  {
    "code": "922F",
    "nom": "Distribution de bouquets de programmes de radio et de télévision",
    "score": 0
  },
  {
    "code": "923A",
    "nom": "Activités artistiques",
    "score": 0
  },
  {
    "code": "923B",
    "nom": "Services annexes aux spectacles",
    "score": 0
  },
  {
    "code": "923D",
    "nom": "Gestion de salles de spectacle",
    "score": 0
  },
  {
    "code": "923F",
    "nom": "Manèges forains et parcs d'attractions",
    "score": 0
  },
  {
    "code": "923K",
    "nom": "Activités diverses du spectacle",
    "score": 0
  },
  {
    "code": "924Z",
    "nom": "Agences de presse",
    "score": 0
  },
  {
    "code": "925A",
    "nom": "Gestion des bibliothèques",
    "score": 0
  },
  {
    "code": "925C",
    "nom": "Gestion du patrimoine culturel",
    "score": 0
  },
  {
    "code": "925E",
    "nom": "Gestion du patrimoine naturel",
    "score": 0
  },
  {
    "code": "926A",
    "nom": "Gestion d'installations sportives",
    "score": 0
  },
  {
    "code": "926C",
    "nom": "Autres activités sportives",
    "score": 0
  },
  {
    "code": "927A",
    "nom": "Jeux de hasard et d'argent",
    "score": 0
  },
  {
    "code": "927C",
    "nom": "Autres activités récréatives",
    "score": 0
  },
  {
    "code": "930A",
    "nom": "Blanchisserie - teinturerie de gros",
    "score": 0
  },
  {
    "code": "930B",
    "nom": "Blanchisserie - teinturerie de détail",
    "score": 0
  },
  {
    "code": "930D",
    "nom": "Coiffure",
    "score": 0
  },
  {
    "code": "930E",
    "nom": "Soins de beauté",
    "score": 0
  },
  {
    "code": "930G",
    "nom": "Soins aux défunts",
    "score": 0
  },
  {
    "code": "930H",
    "nom": "Pompes funèbres",
    "score": 0
  },
  {
    "code": "930K",
    "nom": "Activités thermales et de thalassothérapie",
    "score": 0
  },
  {
    "code": "930L",
    "nom": "Autres soins corporels",
    "score": 0
  },
  {
    "code": "930N",
    "nom": "Autres services personnels",
    "score": 0
  },
  {
    "code": "950Z",
    "nom": "Services domestiques",
    "score": 0
  },
  {
    "code": "990Z",
    "nom": "Activités extra-territoriales",
    "score": 0
  }
]