score;code;nom
0;1;Ouvrier spécialisé
0;2;Ouvrier qualifié
0;3;Agent de maitrise
0;4;Directeur
0;5;Technicien
0;6;"Instituteur; assistant social; infirmier"
0;7;Ingénieur ou cadre
0;8;Professeur
0;9;Employé de bureau
0;10;Autre
